Iteration	Score
48	2.406464066271366
98	1.8044706374071218
148	0.9918948544692693
198	0.7158993913212008
248	0.6759959193123153
298	0.47809511555768935
348	0.3488274312702071
398	0.4571556207049122
448	0.20598564300362726
498	0.22529799735384887
548	0.2134947015153792
598	0.44448253957318506
648	0.24392324080730857
698	0.2999537642140118
748	0.15978176827880322
798	0.08435919552343571
848	0.15088690941715863
898	0.1816201667162274
948	0.10289490391480602
998	0.33868049373756276
1048	0.20814376818212177
1098	0.2009418377322743
1148	0.17622931736420322
1198	0.16349054811549296
1248	0.2121381334425263
1298	0.10044926343104382
1348	0.15573847795231874
1398	0.15859224067245023
1448	0.16584159883846822
1498	0.33088063321834654
1548	0.17559495431266678
1598	0.1273001391824654
1648	0.15389129404409818
1698	0.15035468188109902
1748	0.11907348396356016
1798	0.19664279774139704
1848	0.10869167771300348
1898	0.06077868842052702
1948	0.2154062926833653
1998	0.1087627676925543
2048	0.1615891417647032
2098	0.17257357632426376
2148	0.1480530407830516
2198	0.19465076417157579
2248	0.16660374763736788
2298	0.14289244803763068
2348	0.07560871664730044
2398	0.12892780383115382
2448	0.09781873381469555
2498	0.06267191375263059
2548	0.08881644340360752
2598	0.1324313247920914
2648	0.23696509910569877
2698	0.09295657641310275
2748	0.07100638082102012
2798	0.0955157918792384