Iteration	Score
48	39.83721746147899
98	8.632444890416291
148	51.10861451259736
198	8.461259507651604
248	0.6052110280271755
298	9.724902295410383
348	0.79431514840182
398	21.59431188415651
448	0.4181817367030525
498	0.41762359713134856
548	23.442667320614323
598	0.4158977529983644
648	13.506580821329564
698	169.38980475992057
748	322.77770933543275
798	72.41064478171656
848	0.41499784953870983
898	0.41326408954334054
948	0.4123035022331543
998	0.41247004359221645
1048	23.439842750891724
1098	23.441689291362263
1148	69.49483872245553
1198	0.41623791967662105
1248	18.25618387965923
1298	0.4180360104919788
1348	0.4174071151844863
1398	0.41775498792511256
1448	0.4244596401462423
1498	23.453164682484793
1548	81.15329913222907
1598	56.97412501889807
1648	13.858957063808111
1698	1.0023906022290254
1748	0.6251853537182946
1798	64.52970408768304
1848	132.420053688697
1898	0.4373793267291133
1948	23.46490211825578
1998	0.44077562514381996