Iteration	Score
50	2.3380548095703126
100	0.40367362976074217
150	0.15968768119812013
200	0.456917724609375
250	0.025891737937927248
300	0.008348976373672485
350	0.00657600998878479
400	0.004775481522083283
450	9.110745042562485E-4
500	0.28820161819458007
550	3.450855985283852E-4
600	0.0022466431558132174
650	0.004926352500915527
700	0.0010544142127037047
750	1.2237763963639735E-4
800	0.011882160902023315
850	5.292323976755142E-4
900	0.0016733358800411224
950	4.7727515920996665E-5
1000	1.3684973819181323E-5
1050	0.002070913016796112
1100	4.4797249138355254E-4
1150	3.530023992061615E-4
1200	2.392527647316456E-4
1250	2.2964032832533122E-5
1300	0.0030702930688858033
1350	3.1359998974949124E-5
1400	2.4428046308457852E-5
1450	0.002601069509983063
1500	0.014032938480377198
1550	2.1679021418094635E-4