Iteration	Score
50	1.7697869302821416
100	1.1396186313541492
150	0.7167464633050568
200	0.44608199123832426
250	0.2954831366540997
300	0.1942330366197101
350	0.12851707975682203
400	0.08530744570582474
450	0.071542050203713
500	0.053836378863830275
550	0.040787171166314314
600	0.04703936620138013
650	0.03592034091757451
700	0.028793443193228147
750	0.05959683214181208