Iteration	Score
<<<<<<< HEAD
50	5.851643522232036
100	4.494532196832462
150	3.408337192424249
200	3.380174474793904
250	1.437210752527319
300	0.8076147913358156
350	1.043463055055323
400	1.3954803811505285
450	0.856278650667042
500	0.5724514740010546
550	0.6557000776536472
600	0.9187810380046226
650	0.6976842790129076
700	0.5075882288579612
750	0.7212283588380173
800	0.5426290268935983
850	0.5833117313531894
900	0.5371116979663236
950	0.4180589441167628
1000	0.5149365609284804
1050	0.48080614661281174
1100	0.5570386750013735
1150	0.4815255989824051
1200	0.4002731022186447
1250	0.4445279896840902
1300	0.5308211701036312
1350	0.38596203679887947
1400	0.39147145873529493
1450	0.3700548560784352
1500	0.44683445213650447
1550	0.3716484945837891
=======
50	1.7697869302821416
>>>>>>> master
